EESchema Schematic File Version 2
LIBS:power
LIBS:device
LIBS:transistors
LIBS:conn
LIBS:linear
LIBS:regul
LIBS:74xx
LIBS:cmos4000
LIBS:adc-dac
LIBS:memory
LIBS:xilinx
LIBS:microcontrollers
LIBS:dsp
LIBS:microchip
LIBS:analog_switches
LIBS:motorola
LIBS:texas
LIBS:intel
LIBS:audio
LIBS:interface
LIBS:digital-audio
LIBS:philips
LIBS:display
LIBS:cypress
LIBS:siliconi
LIBS:opto
LIBS:atmel
LIBS:contrib
LIBS:valves
EELAYER 25 0
EELAYER END
$Descr A4 11693 8268
encoding utf-8
Sheet 1 1
Title ""
Date ""
Rev ""
Comp ""
Comment1 ""
Comment2 ""
Comment3 ""
Comment4 ""
$EndDescr
$Comp
L ECC83 U1
U 1 1 561BD208
P 3450 2950
F 0 "U1" H 3580 3260 50  0000 C CNN
F 1 "ECC83" H 3800 2650 50  0000 C CNN
F 2 "Valves:VALVE-ECC-83-1" H 3720 2550 50  0001 C CNN
F 3 "" H 3450 2950 60  0000 C CNN
	1    3450 2950
	1    0    0    -1  
$EndComp
$Comp
L ECC83 U1
U 2 1 561BD2ED
P 5050 3000
F 0 "U1" H 5180 3310 50  0000 C CNN
F 1 "ECC83" H 5400 2700 50  0000 C CNN
F 2 "Valves:VALVE-ECC-83-1" H 5320 2600 50  0001 C CNN
F 3 "" H 5050 3000 60  0000 C CNN
	2    5050 3000
	1    0    0    -1  
$EndComp
$Comp
L ECC83 U1
U 3 1 561BD35E
P 9250 1350
F 0 "U1" H 9380 1660 50  0000 C CNN
F 1 "ECC83" H 9600 1050 50  0000 C CNN
F 2 "Valves:VALVE-ECC-83-1" H 9520 950 50  0001 C CNN
F 3 "" H 9250 1350 60  0000 C CNN
	3    9250 1350
	1    0    0    -1  
$EndComp
$Comp
L R R4
U 1 1 561BD491
P 3450 1750
F 0 "R4" V 3530 1750 50  0000 C CNN
F 1 "220k" V 3450 1750 50  0000 C CNN
F 2 "Resistors_ThroughHole:Resistor_Horizontal_RM15mm" V 3380 1750 30  0001 C CNN
F 3 "" H 3450 1750 30  0000 C CNN
	1    3450 1750
	1    0    0    -1  
$EndComp
$Comp
L R R1
U 1 1 561BD556
P 2800 2950
F 0 "R1" V 2880 2950 50  0000 C CNN
F 1 "1k" V 2800 2950 50  0000 C CNN
F 2 "Resistors_ThroughHole:Resistor_Horizontal_RM15mm" V 2730 2950 30  0001 C CNN
F 3 "" H 2800 2950 30  0000 C CNN
	1    2800 2950
	0    1    1    0   
$EndComp
$Comp
L R R2
U 1 1 561BD5D2
P 3050 3950
F 0 "R2" V 3130 3950 50  0000 C CNN
F 1 "470k" V 3050 3950 50  0000 C CNN
F 2 "Resistors_ThroughHole:Resistor_Horizontal_RM15mm" V 2980 3950 30  0001 C CNN
F 3 "" H 3050 3950 30  0000 C CNN
	1    3050 3950
	1    0    0    -1  
$EndComp
$Comp
L R R3
U 1 1 561BD629
P 3350 3950
F 0 "R3" V 3430 3950 50  0000 C CNN
F 1 "2k2" V 3350 3950 50  0000 C CNN
F 2 "Resistors_ThroughHole:Resistor_Horizontal_RM15mm" V 3280 3950 30  0001 C CNN
F 3 "" H 3350 3950 30  0000 C CNN
	1    3350 3950
	1    0    0    -1  
$EndComp
$Comp
L R R6
U 1 1 561BD6A5
P 4600 3950
F 0 "R6" V 4680 3950 50  0000 C CNN
F 1 "470k" V 4600 3950 50  0000 C CNN
F 2 "Resistors_ThroughHole:Resistor_Horizontal_RM15mm" V 4530 3950 30  0001 C CNN
F 3 "" H 4600 3950 30  0000 C CNN
	1    4600 3950
	1    0    0    -1  
$EndComp
$Comp
L R R7
U 1 1 561BD7BC
P 4950 3950
F 0 "R7" V 5030 3950 50  0000 C CNN
F 1 "470" V 4950 3950 50  0000 C CNN
F 2 "Resistors_ThroughHole:Resistor_Horizontal_RM15mm" V 4880 3950 30  0001 C CNN
F 3 "" H 4950 3950 30  0000 C CNN
	1    4950 3950
	1    0    0    -1  
$EndComp
$Comp
L C C3
U 1 1 561BD958
P 4100 2550
F 0 "C3" H 4125 2650 50  0000 L CNN
F 1 "100nF/400v" V 4000 2700 50  0000 L CNN
F 2 "Capacitors_ThroughHole:C_Rect_L18_W8_P15" H 4138 2400 30  0001 C CNN
F 3 "" H 4100 2550 60  0000 C CNN
	1    4100 2550
	0    1    1    0   
$EndComp
$Comp
L C C4
U 1 1 561BDA6A
P 4250 3950
F 0 "C4" H 4275 4050 50  0000 L CNN
F 1 "2n2/400v" V 4100 3750 50  0000 L CNN
F 2 "Capacitors_ThroughHole:C_Rect_L18_W8_P15" H 4288 3800 30  0001 C CNN
F 3 "" H 4250 3950 60  0000 C CNN
	1    4250 3950
	1    0    0    -1  
$EndComp
$Comp
L R R5
U 1 1 561BDC48
P 3800 3450
F 0 "R5" V 3880 3450 50  0000 C CNN
F 1 "10k" V 3800 3450 50  0000 C CNN
F 2 "Resistors_ThroughHole:Resistor_Horizontal_RM15mm" V 3730 3450 30  0001 C CNN
F 3 "" H 3800 3450 30  0000 C CNN
	1    3800 3450
	0    1    1    0   
$EndComp
$Comp
L ECC88 U2
U 1 1 561BDEA2
P 6000 2450
F 0 "U2" H 6170 2730 50  0000 L CNN
F 1 "ECC88" H 6200 2150 50  0000 L CNN
F 2 "Valves:VALVE-ECC-83-1" H 6270 2050 50  0001 C CNN
F 3 "" H 6000 2450 60  0000 C CNN
	1    6000 2450
	1    0    0    -1  
$EndComp
$Comp
L ECC88 U2
U 2 1 561BDF75
P 5900 3550
F 0 "U2" H 6070 3830 50  0000 L CNN
F 1 "ECC88" H 6100 3250 50  0000 L CNN
F 2 "Valves:VALVE-ECC-83-1" H 6170 3150 50  0001 C CNN
F 3 "" H 5900 3550 60  0000 C CNN
	2    5900 3550
	-1   0    0    -1  
$EndComp
$Comp
L R R9
U 1 1 561BE550
P 6000 1800
F 0 "R9" V 6080 1800 50  0000 C CNN
F 1 "220" V 6000 1800 50  0000 C CNN
F 2 "Resistors_ThroughHole:Resistor_Horizontal_RM15mm" V 5930 1800 30  0001 C CNN
F 3 "" H 6000 1800 30  0000 C CNN
	1    6000 1800
	1    0    0    -1  
$EndComp
$Comp
L R R10
U 1 1 561BE980
P 6000 4250
F 0 "R10" V 6080 4250 50  0000 C CNN
F 1 "130" V 6000 4250 50  0000 C CNN
F 2 "Resistors_ThroughHole:Resistor_Horizontal_RM15mm" V 5930 4250 30  0001 C CNN
F 3 "" H 6000 4250 30  0000 C CNN
	1    6000 4250
	1    0    0    -1  
$EndComp
$Comp
L R R8
U 1 1 561BD85B
P 5050 1800
F 0 "R8" V 5130 1800 50  0000 C CNN
F 1 "100k" V 5050 1800 50  0000 C CNN
F 2 "Resistors_ThroughHole:Resistor_Horizontal_RM15mm" V 4980 1800 30  0001 C CNN
F 3 "" H 5050 1800 30  0000 C CNN
	1    5050 1800
	1    0    0    -1  
$EndComp
$Comp
L C C5
U 1 1 561BF42A
P 4800 1800
F 0 "C5" H 4825 1900 50  0000 L CNN
F 1 "150nF/400v" V 4650 1550 50  0000 L CNN
F 2 "Capacitors_ThroughHole:C_Rect_L18_W8_P15" H 4838 1650 30  0001 C CNN
F 3 "" H 4800 1800 60  0000 C CNN
	1    4800 1800
	1    0    0    -1  
$EndComp
$Comp
L R R12
U 1 1 561BF771
P 6500 4250
F 0 "R12" V 6580 4250 50  0000 C CNN
F 1 "470k" V 6500 4250 50  0000 C CNN
F 2 "Resistors_ThroughHole:Resistor_Horizontal_RM15mm" V 6430 4250 30  0001 C CNN
F 3 "" H 6500 4250 30  0000 C CNN
	1    6500 4250
	1    0    0    -1  
$EndComp
$Comp
L R R11
U 1 1 561BF8EB
P 6500 3250
F 0 "R11" V 6580 3250 50  0000 C CNN
F 1 "10k" V 6500 3250 50  0000 C CNN
F 2 "Resistors_ThroughHole:Resistor_Horizontal_RM15mm" V 6430 3250 30  0001 C CNN
F 3 "" H 6500 3250 30  0000 C CNN
	1    6500 3250
	1    0    0    -1  
$EndComp
$Comp
L C C6
U 1 1 561C015C
P 6500 2450
F 0 "C6" H 6525 2550 50  0000 L CNN
F 1 "100nF/400v" H 6525 2350 50  0000 L CNN
F 2 "Capacitors_ThroughHole:C_Rect_L18_W8_P15" H 6538 2300 30  0001 C CNN
F 3 "" H 6500 2450 60  0000 C CNN
	1    6500 2450
	1    0    0    -1  
$EndComp
$Comp
L CP C7
U 1 1 561C0341
P 6950 3000
F 0 "C7" H 6975 3100 50  0000 L CNN
F 1 "4u7/400v" V 7150 2800 50  0000 L CNN
F 2 "Capacitors_Elko_ThroughHole:Elko_vert_31.5x14mm_RM5" H 6988 2850 30  0001 C CNN
F 3 "" H 6950 3000 60  0000 C CNN
	1    6950 3000
	0    -1   -1   0   
$EndComp
Wire Wire Line
	2950 2950 3150 2950
Wire Wire Line
	3050 3800 3050 2950
Connection ~ 3050 2950
Wire Wire Line
	3350 3350 3350 3800
Wire Wire Line
	3450 1900 3450 2550
Wire Wire Line
	4250 3000 4750 3000
Wire Wire Line
	4600 2550 4600 3800
Wire Wire Line
	4950 3400 4950 3800
Wire Wire Line
	4250 2550 4600 2550
Connection ~ 4600 3000
Wire Wire Line
	3450 2550 3950 2550
Wire Wire Line
	4250 3000 4250 3800
Wire Wire Line
	3650 3450 3350 3450
Connection ~ 3350 3450
Wire Wire Line
	6000 1950 6000 2050
Wire Wire Line
	5900 2850 5900 3150
Wire Wire Line
	6000 3950 6000 4100
Wire Wire Line
	6000 4550 6000 4400
Wire Wire Line
	3050 4550 3050 4100
Wire Wire Line
	3350 4100 3350 4700
Connection ~ 3350 4550
Wire Wire Line
	4950 4100 4950 4550
Connection ~ 4950 4550
Wire Wire Line
	4250 4100 4250 4550
Connection ~ 4250 4550
Wire Wire Line
	4600 4100 4600 4550
Connection ~ 4600 4550
Wire Wire Line
	5700 2450 5050 2450
Wire Wire Line
	5050 1950 5050 2600
Connection ~ 5050 2450
Wire Wire Line
	6000 1500 6000 1650
Wire Wire Line
	4250 1500 6000 1500
Wire Wire Line
	5050 1500 5050 1650
Wire Wire Line
	4800 1500 4800 1650
Connection ~ 5050 1500
Wire Wire Line
	6200 3550 6500 3550
Wire Wire Line
	6500 3400 6500 4100
Connection ~ 6500 3550
Wire Wire Line
	6500 4550 6500 4400
Connection ~ 6000 4550
Wire Wire Line
	6500 3100 6500 2600
Wire Wire Line
	6500 2300 6500 2000
Wire Wire Line
	6500 2000 6000 2000
Connection ~ 6000 2000
Wire Wire Line
	6800 3000 5900 3000
Connection ~ 5900 3000
Wire Wire Line
	3950 3450 4000 3450
Wire Wire Line
	4000 3450 4000 4750
Wire Wire Line
	4000 4750 7400 4750
Wire Wire Line
	7250 3000 7250 4750
Wire Wire Line
	7100 3000 7400 3000
Connection ~ 6500 4550
$Comp
L C C1
U 1 1 561C084E
P 2300 2950
F 0 "C1" H 2325 3050 50  0000 L CNN
F 1 "47nF" V 2150 2950 50  0000 L CNN
F 2 "Capacitors_ThroughHole:C_Rect_L18_W8_P15" H 2338 2800 30  0001 C CNN
F 3 "" H 2300 2950 60  0000 C CNN
	1    2300 2950
	0    1    1    0   
$EndComp
Wire Wire Line
	2450 2950 2650 2950
$Comp
L C C2
U 1 1 561C144E
P 3100 1750
F 0 "C2" H 3125 1850 50  0000 L CNN
F 1 "150nF/400v" V 2950 1500 50  0000 L CNN
F 2 "Capacitors_ThroughHole:C_Rect_L18_W8_P15" H 3138 1600 30  0001 C CNN
F 3 "" H 3100 1750 60  0000 C CNN
	1    3100 1750
	1    0    0    -1  
$EndComp
Wire Wire Line
	3100 1600 3100 1500
Wire Wire Line
	3100 1500 4050 1500
Wire Wire Line
	3450 1500 3450 1600
$Comp
L GND #PWR01
U 1 1 561C16D3
P 3100 2050
F 0 "#PWR01" H 3100 1800 50  0001 C CNN
F 1 "GND" H 3100 1900 50  0000 C CNN
F 2 "" H 3100 2050 60  0000 C CNN
F 3 "" H 3100 2050 60  0000 C CNN
	1    3100 2050
	1    0    0    -1  
$EndComp
$Comp
L GND #PWR02
U 1 1 561C1719
P 4800 2050
F 0 "#PWR02" H 4800 1800 50  0001 C CNN
F 1 "GND" H 4800 1900 50  0000 C CNN
F 2 "" H 4800 2050 60  0000 C CNN
F 3 "" H 4800 2050 60  0000 C CNN
	1    4800 2050
	1    0    0    -1  
$EndComp
Wire Wire Line
	4800 1950 4800 2050
Wire Wire Line
	3100 1900 3100 2050
$Comp
L GND #PWR03
U 1 1 561C19C6
P 3350 4700
F 0 "#PWR03" H 3350 4450 50  0001 C CNN
F 1 "GND" H 3350 4550 50  0000 C CNN
F 2 "" H 3350 4700 60  0000 C CNN
F 3 "" H 3350 4700 60  0000 C CNN
	1    3350 4700
	1    0    0    -1  
$EndComp
$Comp
L R R13
U 1 1 561C2049
P 7550 4750
F 0 "R13" V 7630 4750 50  0000 C CNN
F 1 "100k" V 7550 4750 50  0000 C CNN
F 2 "Resistors_ThroughHole:Resistor_Horizontal_RM15mm" V 7480 4750 30  0001 C CNN
F 3 "" H 7550 4750 30  0000 C CNN
	1    7550 4750
	0    1    1    0   
$EndComp
Connection ~ 7250 4750
$Comp
L CONN_01X02 P1
U 1 1 561C2B95
P 1900 3950
F 0 "P1" H 1900 4100 50  0000 C CNN
F 1 "CONN_01X02" V 2000 3950 50  0000 C CNN
F 2 "Pin_Headers:Pin_Header_Straight_1x02" H 1900 3950 60  0001 C CNN
F 3 "" H 1900 3950 60  0000 C CNN
	1    1900 3950
	-1   0    0    1   
$EndComp
Wire Wire Line
	2150 2950 2150 3900
Wire Wire Line
	2150 3900 2100 3900
Wire Wire Line
	2100 4000 2150 4000
Wire Wire Line
	2150 4000 2150 4550
Connection ~ 3050 4550
$Comp
L CONN_01X03 P2
U 1 1 561C325B
P 4150 1300
F 0 "P2" H 4150 1500 50  0000 C CNN
F 1 "CONN_01X03" V 4250 1300 50  0000 C CNN
F 2 "Pin_Headers:Pin_Header_Straight_1x03" H 4150 1300 60  0001 C CNN
F 3 "" H 4150 1300 60  0000 C CNN
	1    4150 1300
	0    -1   -1   0   
$EndComp
Connection ~ 3450 1500
Connection ~ 4800 1500
$Comp
L GND #PWR04
U 1 1 561C347F
P 4150 2050
F 0 "#PWR04" H 4150 1800 50  0001 C CNN
F 1 "GND" H 4150 1900 50  0000 C CNN
F 2 "" H 4150 2050 60  0000 C CNN
F 3 "" H 4150 2050 60  0000 C CNN
	1    4150 2050
	1    0    0    -1  
$EndComp
Wire Wire Line
	4150 1500 4150 2050
$Comp
L ECC88 U2
U 3 1 561C37A9
P 8550 1300
F 0 "U2" H 8720 1580 50  0000 L CNN
F 1 "ECC88" H 8750 1000 50  0000 L CNN
F 2 "Valves:VALVE-ECC-83-1" H 8820 900 50  0001 C CNN
F 3 "" H 8550 1300 60  0000 C CNN
	3    8550 1300
	1    0    0    -1  
$EndComp
Wire Wire Line
	8650 1750 8650 1900
Wire Wire Line
	8100 1900 9250 1900
Wire Wire Line
	9250 1900 9250 1800
Wire Wire Line
	8450 1750 8450 2000
Wire Wire Line
	8000 2000 9350 2000
Wire Wire Line
	9150 2000 9150 1800
Wire Wire Line
	9350 2000 9350 1800
Connection ~ 9150 2000
$Comp
L CONN_01X02 P4
U 1 1 561C3E3C
P 8050 1700
F 0 "P4" H 8050 1850 50  0000 C CNN
F 1 "CONN_01X02" V 8150 1700 50  0000 C CNN
F 2 "Pin_Headers:Pin_Header_Straight_1x02" H 8050 1700 60  0001 C CNN
F 3 "" H 8050 1700 60  0000 C CNN
	1    8050 1700
	0    -1   -1   0   
$EndComp
Connection ~ 8650 1900
Wire Wire Line
	8000 1900 8000 2000
Connection ~ 8450 2000
Wire Wire Line
	2150 4550 7900 4550
$Comp
L CONN_01X02 P3
U 1 1 561C4628
P 7600 3800
F 0 "P3" H 7600 3950 50  0000 C CNN
F 1 "CONN_01X02" V 7700 3800 50  0000 C CNN
F 2 "Pin_Headers:Pin_Header_Straight_1x02" H 7600 3800 60  0001 C CNN
F 3 "" H 7600 3800 60  0000 C CNN
	1    7600 3800
	1    0    0    -1  
$EndComp
Wire Wire Line
	7400 4550 7400 3850
Wire Wire Line
	7400 3000 7400 3750
Connection ~ 7250 3000
$Comp
L CONN_01X02 P5
U 1 1 561C5EF9
P 8100 4700
F 0 "P5" H 8100 4850 50  0000 C CNN
F 1 "CONN_01X02" V 8200 4700 50  0000 C CNN
F 2 "Pin_Headers:Pin_Header_Straight_1x02" H 8100 4700 60  0001 C CNN
F 3 "" H 8100 4700 60  0000 C CNN
	1    8100 4700
	1    0    0    -1  
$EndComp
Wire Wire Line
	7700 4750 7900 4750
Wire Wire Line
	7900 4550 7900 4650
Connection ~ 7400 4550
$EndSCHEMATC
